{
  "artists": {
    "href": "https://api.spotify.com/v1/search?offset=0&limit=20&query=chanson%20fran%C3%A7aise&type=artist&market=FR&locale=*",
    "limit": 20,
    "next": "https://api.spotify.com/v1/search?offset=20&limit=20&query=chanson%20fran%C3%A7aise&type=artist&market=FR&locale=*",
    "offset": 0,
    "previous": null,
    "total": 20,
    "items": [
      {
        "external_urls": {
          "spotify": "https://open.spotify.com/artist/0FEJqmeLRzsXj8hgcZaAyB"
        },
        "followers": {
          "href": null,
          "total": 2319396
        },
        "genres": [
          "french pop"
        ],
        "href": "https://api.spotify.com/v1/artists/0FEJqmeLRzsXj8hgcZaAyB",
        "id": "0FEJqmeLRzsXj8hgcZaAyB",
        "images": [
          {
            "url": "https://i.scdn.co/image/ab6761610000e5eb6cd07d169e7e2ec94193a1d2",
            "height": 640,
            "width": 640
          },
          {
            "url": "https://i.scdn.co/image/ab676161000051746cd07d169e7e2ec94193a1d2",
            "height": 320,
            "width": 320
          },
          {
            "url": "https://i.scdn.co/image/ab6761610000f1786cd07d169e7e2ec94193a1d2",
            "height": 160,
            "width": 160
          }
        ],
        "name": "Indila",
        "popularity": 72,
        "type": "artist",
        "uri": "spotify:artist:0FEJqmeLRzsXj8hgcZaAyB"
      },
      {
        "external_urls": {
          "spotify": "https://open.spotify.com/artist/6HTUcOExehqydqa7C3usAa"
        },
        "followers": {
          "href": null,
          "total": 3577971
        },
        "genres": [
          "folklore argentino",
          "cuarteto"
        ],
        "href": "https://api.spotify.com/v1/artists/6HTUcOExehqydqa7C3usAa",
        "id": "6HTUcOExehqydqa7C3usAa",
        "images": [
          {
            "url": "https://i.scdn.co/image/ab6761610000e5eb0f871be86271a89620b27f93",
            "height": 640,
            "width": 640
          },
          {
            "url": "https://i.scdn.co/image/ab676161000051740f871be86271a89620b27f93",
            "height": 320,
            "width": 320
          },
          {
            "url": "https://i.scdn.co/image/ab6761610000f1780f871be86271a89620b27f93",
            "height": 160,
            "width": 160
          }
        ],
        "name": "Abel Pintos",
        "popularity": 68,
        "type": "artist",
        "uri": "spotify:artist:6HTUcOExehqydqa7C3usAa"
      },
      {
        "external_urls": {
          "spotify": "https://open.spotify.com/artist/2hgP9Ap2tc10R5jrQaEpMT"
        },
        "followers": {
          "href": null,
          "total": 1626085
        },
        "genres": [
          "chanson",
          "variété française",
          "french jazz"
        ],
        "href": "https://api.spotify.com/v1/artists/2hgP9Ap2tc10R5jrQaEpMT",
        "id": "2hgP9Ap2tc10R5jrQaEpMT",
        "images": [
          {
            "url": "https://i.scdn.co/image/ab6761610000e5eb9df3ab10872287c871c7a1be",
            "height": 640,
            "width": 640
          },
          {
            "url": "https://i.scdn.co/image/ab676161000051749df3ab10872287c871c7a1be",
            "height": 320,
            "width": 320
          },
          {
            "url": "https://i.scdn.co/image/ab6761610000f1789df3ab10872287c871c7a1be",
            "height": 160,
            "width": 160
          }
        ],
        "name": "Charles Aznavour",
        "popularity": 66,
        "type": "artist",
        "uri": "spotify:artist:2hgP9Ap2tc10R5jrQaEpMT"
      },
      {
        "external_urls": {
          "spotify": "https://open.spotify.com/artist/1mbgj8ERPs8lWi7t5cYrdy"
        },
        "followers": {
          "href": null,
          "total": 1633688
        },
        "genres": [
          "chanson",
          "french pop",
          "french jazz"
        ],
        "href": "https://api.spotify.com/v1/artists/1mbgj8ERPs8lWi7t5cYrdy",
        "id": "1mbgj8ERPs8lWi7t5cYrdy",
        "images": [
          {
            "url": "https://i.scdn.co/image/ab6761610000e5eb2e0de300f0dcdc462bae5234",
            "height": 640,
            "width": 640
          },
          {
            "url": "https://i.scdn.co/image/ab676161000051742e0de300f0dcdc462bae5234",
            "height": 320,
            "width": 320
          },
          {
            "url": "https://i.scdn.co/image/ab6761610000f1782e0de300f0dcdc462bae5234",
            "height": 160,
            "width": 160
          }
        ],
        "name": "Zaz",
        "popularity": 65,
        "type": "artist",
        "uri": "spotify:artist:1mbgj8ERPs8lWi7t5cYrdy"
      },
      {
        "external_urls": {
          "spotify": "https://open.spotify.com/artist/22P1OY4TRFRwhP0q29loQ8"
        },
        "followers": {
          "href": null,
          "total": 1989665
        },
        "genres": [],
        "href": "https://api.spotify.com/v1/artists/22P1OY4TRFRwhP0q29loQ8",
        "id": "22P1OY4TRFRwhP0q29loQ8",
        "images": [
          {
            "url": "https://i.scdn.co/image/ab6761610000e5eb9966b17b3ded0c94986f891f",
            "height": 640,
            "width": 640
          },
          {
            "url": "https://i.scdn.co/image/ab676161000051749966b17b3ded0c94986f891f",
            "height": 320,
            "width": 320
          },
          {
            "url": "https://i.scdn.co/image/ab6761610000f1789966b17b3ded0c94986f891f",
            "height": 160,
            "width": 160
          }
        ],
        "name": "Lali",
        "popularity": 63,
        "type": "artist",
        "uri": "spotify:artist:22P1OY4TRFRwhP0q29loQ8"
      },
      {
        "external_urls": {
          "spotify": "https://open.spotify.com/artist/1WPcVNert9hn7mHsPKDn7j"
        },
        "followers": {
          "href": null,
          "total": 1226877
        },
        "genres": [
          "chanson",
          "variété française",
          "french jazz"
        ],
        "href": "https://api.spotify.com/v1/artists/1WPcVNert9hn7mHsPKDn7j",
        "id": "1WPcVNert9hn7mHsPKDn7j",
        "images": [
          {
            "url": "https://i.scdn.co/image/ab6761610000e5eb4ffde9b9fb5abeb2e14cef0d",
            "height": 640,
            "width": 640
          },
          {
            "url": "https://i.scdn.co/image/ab676161000051744ffde9b9fb5abeb2e14cef0d",
            "height": 320,
            "width": 320
          },
          {
            "url": "https://i.scdn.co/image/ab6761610000f1784ffde9b9fb5abeb2e14cef0d",
            "height": 160,
            "width": 160
          }
        ],
        "name": "Édith Piaf",
        "popularity": 62,
        "type": "artist",
        "uri": "spotify:artist:1WPcVNert9hn7mHsPKDn7j"
      },
      {
        "external_urls": {
          "spotify": "https://open.spotify.com/artist/64LCTpIu9Iji2EPaxxPpxF"
        },
        "followers": {
          "href": null,
          "total": 661008
        },
        "genres": [
          "chanson",
          "variété française",
          "french pop"
        ],
        "href": "https://api.spotify.com/v1/artists/64LCTpIu9Iji2EPaxxPpxF",
        "id": "64LCTpIu9Iji2EPaxxPpxF",
        "images": [
          {
            "url": "https://i.scdn.co/image/ab6761610000e5eb78c62552534c9f2cf9151f8c",
            "height": 640,
            "width": 640
          },
          {
            "url": "https://i.scdn.co/image/ab6761610000517478c62552534c9f2cf9151f8c",
            "height": 320,
            "width": 320
          },
          {
            "url": "https://i.scdn.co/image/ab6761610000f17878c62552534c9f2cf9151f8c",
            "height": 160,
            "width": 160
          }
        ],
        "name": "Joe Dassin",
        "popularity": 62,
        "type": "artist",
        "uri": "spotify:artist:64LCTpIu9Iji2EPaxxPpxF"
      },
      {
        "external_urls": {
          "spotify": "https://open.spotify.com/artist/1HVwzNriKEjaeE06okqSpx"
        },
        "followers": {
          "href": null,
          "total": 565547
        },
        "genres": [
          "french jazz",
          "chanson"
        ],
        "href": "https://api.spotify.com/v1/artists/1HVwzNriKEjaeE06okqSpx",
        "id": "1HVwzNriKEjaeE06okqSpx",
        "images": [
          {
            "url": "https://i.scdn.co/image/ab6761610000e5eb1d05c17e7271984b1e009d6f",
            "height": 640,
            "width": 640
          },
          {
            "url": "https://i.scdn.co/image/ab676161000051741d05c17e7271984b1e009d6f",
            "height": 320,
            "width": 320
          },
          {
            "url": "https://i.scdn.co/image/ab6761610000f1781d05c17e7271984b1e009d6f",
            "height": 160,
            "width": 160
          }
        ],
        "name": "Carla Bruni",
        "popularity": 61,
        "type": "artist",
        "uri": "spotify:artist:1HVwzNriKEjaeE06okqSpx"
      },
      {
        "external_urls": {
          "spotify": "https://open.spotify.com/artist/1db5TWniHR7iqwXer7AiQ2"
        },
        "followers": {
          "href": null,
          "total": 436545
        },
        "genres": [
          "argentine rock"
        ],
        "href": "https://api.spotify.com/v1/artists/1db5TWniHR7iqwXer7AiQ2",
        "id": "1db5TWniHR7iqwXer7AiQ2",
        "images": [
          {
            "url": "https://i.scdn.co/image/ab6761610000e5eb542a5f586667963452614feb",
            "height": 640,
            "width": 640
          },
          {
            "url": "https://i.scdn.co/image/ab67616100005174542a5f586667963452614feb",
            "height": 320,
            "width": 320
          },
          {
            "url": "https://i.scdn.co/image/ab6761610000f178542a5f586667963452614feb",
            "height": 160,
            "width": 160
          }
        ],
        "name": "Pappo",
        "popularity": 51,
        "type": "artist",
        "uri": "spotify:artist:1db5TWniHR7iqwXer7AiQ2"
      },
      {
        "external_urls": {
          "spotify": "https://open.spotify.com/artist/6nS9ouoHJP473M7180H9tP"
        },
        "followers": {
          "href": null,
          "total": 21213
        },
        "genres": [
          "boom bap",
          "latin hip hop"
        ],
        "href": "https://api.spotify.com/v1/artists/6nS9ouoHJP473M7180H9tP",
        "id": "6nS9ouoHJP473M7180H9tP",
        "images": [
          {
            "url": "https://i.scdn.co/image/ab6761610000e5eb47bbfbb8a5ae6a9c1005fb3e",
            "height": 640,
            "width": 640
          },
          {
            "url": "https://i.scdn.co/image/ab6761610000517447bbfbb8a5ae6a9c1005fb3e",
            "height": 320,
            "width": 320
          },
          {
            "url": "https://i.scdn.co/image/ab6761610000f17847bbfbb8a5ae6a9c1005fb3e",
            "height": 160,
            "width": 160
          }
        ],
        "name": "Frane",
        "popularity": 39,
        "type": "artist",
        "uri": "spotify:artist:6nS9ouoHJP473M7180H9tP"
      },
      {
        "external_urls": {
          "spotify": "https://open.spotify.com/artist/00Kwx4BvhjavOQeeG9gZjw"
        },
        "followers": {
          "href": null,
          "total": 11951
        },
        "genres": [
          "chanson"
        ],
        "href": "https://api.spotify.com/v1/artists/00Kwx4BvhjavOQeeG9gZjw",
        "id": "00Kwx4BvhjavOQeeG9gZjw",
        "images": [
          {
            "url": "https://i.scdn.co/image/ab67616d0000b273e1106f4035a8cc008a525174",
            "height": 640,
            "width": 640
          },
          {
            "url": "https://i.scdn.co/image/ab67616d00001e02e1106f4035a8cc008a525174",
            "height": 300,
            "width": 300
          },
          {
            "url": "https://i.scdn.co/image/ab67616d00004851e1106f4035a8cc008a525174",
            "height": 64,
            "width": 64
          }
        ],
        "name": "Chansons Françaises",
        "popularity": 19,
        "type": "artist",
        "uri": "spotify:artist:00Kwx4BvhjavOQeeG9gZjw"
      },
      {
        "external_urls": {
          "spotify": "https://open.spotify.com/artist/76CIE08ImAEnX5iRfe7ni7"
        },
        "followers": {
          "href": null,
          "total": 1899
        },
        "genres": [],
        "href": "https://api.spotify.com/v1/artists/76CIE08ImAEnX5iRfe7ni7",
        "id": "76CIE08ImAEnX5iRfe7ni7",
        "images": [
          {
            "url": "https://i.scdn.co/image/ab67616d0000b2731f943bbf0d53d8d4a64c8c70",
            "height": 640,
            "width": 640
          },
          {
            "url": "https://i.scdn.co/image/ab67616d00001e021f943bbf0d53d8d4a64c8c70",
            "height": 300,
            "width": 300
          },
          {
            "url": "https://i.scdn.co/image/ab67616d000048511f943bbf0d53d8d4a64c8c70",
            "height": 64,
            "width": 64
          }
        ],
        "name": "Le meilleur de la chanson française",
        "popularity": 13,
        "type": "artist",
        "uri": "spotify:artist:76CIE08ImAEnX5iRfe7ni7"
      },
      {
        "external_urls": {
          "spotify": "https://open.spotify.com/artist/4NgQ98Us3ipEngAuKOifxj"
        },
        "followers": {
          "href": null,
          "total": 944
        },
        "genres": [],
        "href": "https://api.spotify.com/v1/artists/4NgQ98Us3ipEngAuKOifxj",
        "id": "4NgQ98Us3ipEngAuKOifxj",
        "images": [
          {
            "url": "https://i.scdn.co/image/ab67616d0000b273e3e7a5259bc7bbee73ce4006",
            "height": 640,
            "width": 640
          },
          {
            "url": "https://i.scdn.co/image/ab67616d00001e02e3e7a5259bc7bbee73ce4006",
            "height": 300,
            "width": 300
          },
          {
            "url": "https://i.scdn.co/image/ab67616d00004851e3e7a5259bc7bbee73ce4006",
            "height": 64,
            "width": 64
          }
        ],
        "name": "100% Hits - Chanson Française",
        "popularity": 13,
        "type": "artist",
        "uri": "spotify:artist:4NgQ98Us3ipEngAuKOifxj"
      },
      {
        "external_urls": {
          "spotify": "https://open.spotify.com/artist/12yskxAZUBU9h3OhHp2lu9"
        },
        "followers": {
          "href": null,
          "total": 3300
        },
        "genres": [],
        "href": "https://api.spotify.com/v1/artists/12yskxAZUBU9h3OhHp2lu9",
        "id": "12yskxAZUBU9h3OhHp2lu9",
        "images": [
          {
            "url": "https://i.scdn.co/image/ab67616d0000b273b48c22ff9e5a3469cea11dda",
            "height": 640,
            "width": 640
          },
          {
            "url": "https://i.scdn.co/image/ab67616d00001e02b48c22ff9e5a3469cea11dda",
            "height": 300,
            "width": 300
          },
          {
            "url": "https://i.scdn.co/image/ab67616d00004851b48c22ff9e5a3469cea11dda",
            "height": 64,
            "width": 64
          }
        ],
        "name": "Compilation Titres cultes de la Chanson Française",
        "popularity": 11,
        "type": "artist",
        "uri": "spotify:artist:12yskxAZUBU9h3OhHp2lu9"
      },
      {
        "external_urls": {
          "spotify": "https://open.spotify.com/artist/6eZFBSDQThGjxPTNjdJD4S"
        },
        "followers": {
          "href": null,
          "total": 841
        },
        "genres": [
          "chanson",
          "variété française"
        ],
        "href": "https://api.spotify.com/v1/artists/6eZFBSDQThGjxPTNjdJD4S",
        "id": "6eZFBSDQThGjxPTNjdJD4S",
        "images": [
          {
            "url": "https://i.scdn.co/image/ab67616d0000b2735ed410ba0e5a5571a6bf26d2",
            "height": 640,
            "width": 640
          },
          {
            "url": "https://i.scdn.co/image/ab67616d00001e025ed410ba0e5a5571a6bf26d2",
            "height": 300,
            "width": 300
          },
          {
            "url": "https://i.scdn.co/image/ab67616d000048515ed410ba0e5a5571a6bf26d2",
            "height": 64,
            "width": 64
          }
        ],
        "name": "L'Essentiel De La Chanson Française",
        "popularity": 8,
        "type": "artist",
        "uri": "spotify:artist:6eZFBSDQThGjxPTNjdJD4S"
      },
      {
        "external_urls": {
          "spotify": "https://open.spotify.com/artist/3G83gepkfKIe6YlX2vsHkm"
        },
        "followers": {
          "href": null,
          "total": 503
        },
        "genres": [],
        "href": "https://api.spotify.com/v1/artists/3G83gepkfKIe6YlX2vsHkm",
        "id": "3G83gepkfKIe6YlX2vsHkm",
        "images": [
          {
            "url": "https://i.scdn.co/image/ab67616d0000b273848e00d59a6f52dfba393afd",
            "height": 640,
            "width": 640
          },
          {
            "url": "https://i.scdn.co/image/ab67616d00001e02848e00d59a6f52dfba393afd",
            "height": 300,
            "width": 300
          },
          {
            "url": "https://i.scdn.co/image/ab67616d00004851848e00d59a6f52dfba393afd",
            "height": 64,
            "width": 64
          }
        ],
        "name": "Chansons Françaises De Légende",
        "popularity": 3,
        "type": "artist",
        "uri": "spotify:artist:3G83gepkfKIe6YlX2vsHkm"
      },
      {
        "external_urls": {
          "spotify": "https://open.spotify.com/artist/4V7vkMKmZJT7O5g7mx1eam"
        },
        "followers": {
          "href": null,
          "total": 432
        },
        "genres": [],
        "href": "https://api.spotify.com/v1/artists/4V7vkMKmZJT7O5g7mx1eam",
        "id": "4V7vkMKmZJT7O5g7mx1eam",
        "images": [
          {
            "url": "https://i.scdn.co/image/ab67616d0000b27356212cb8c22b6e6fff9f7207",
            "height": 640,
            "width": 640
          },
          {
            "url": "https://i.scdn.co/image/ab67616d00001e0256212cb8c22b6e6fff9f7207",
            "height": 300,
            "width": 300
          },
          {
            "url": "https://i.scdn.co/image/ab67616d0000485156212cb8c22b6e6fff9f7207",
            "height": 64,
            "width": 64
          }
        ],
        "name": "La Collection En Or Des Chansons Françaises",
        "popularity": 3,
        "type": "artist",
        "uri": "spotify:artist:4V7vkMKmZJT7O5g7mx1eam"
      },
      {
        "external_urls": {
          "spotify": "https://open.spotify.com/artist/6WyDzM9GTLCamJum9xEl15"
        },
        "followers": {
          "href": null,
          "total": 82
        },
        "genres": [],
        "href": "https://api.spotify.com/v1/artists/6WyDzM9GTLCamJum9xEl15",
        "id": "6WyDzM9GTLCamJum9xEl15",
        "images": [
          {
            "url": "https://i.scdn.co/image/ab67616d0000b2737becc0002f724a967e7dafd4",
            "height": 640,
            "width": 640
          },
          {
            "url": "https://i.scdn.co/image/ab67616d00001e027becc0002f724a967e7dafd4",
            "height": 300,
            "width": 300
          },
          {
            "url": "https://i.scdn.co/image/ab67616d000048517becc0002f724a967e7dafd4",
            "height": 64,
            "width": 64
          }
        ],
        "name": "Chansons De Noel Françaises",
        "popularity": 2,
        "type": "artist",
        "uri": "spotify:artist:6WyDzM9GTLCamJum9xEl15"
      },
      {
        "external_urls": {
          "spotify": "https://open.spotify.com/artist/6HmPo1vOkZL767dwLAK3rl"
        },
        "followers": {
          "href": null,
          "total": 53
        },
        "genres": [],
        "href": "https://api.spotify.com/v1/artists/6HmPo1vOkZL767dwLAK3rl",
        "id": "6HmPo1vOkZL767dwLAK3rl",
        "images": [
          {
            "url": "https://i.scdn.co/image/ab67616d0000b273a54a81d1724179e3b388b229",
            "height": 640,
            "width": 640
          },
          {
            "url": "https://i.scdn.co/image/ab67616d00001e02a54a81d1724179e3b388b229",
            "height": 300,
            "width": 300
          },
          {
            "url": "https://i.scdn.co/image/ab67616d00004851a54a81d1724179e3b388b229",
            "height": 64,
            "width": 64
          }
        ],
        "name": "Chanson Française 2017",
        "popularity": 0,
        "type": "artist",
        "uri": "spotify:artist:6HmPo1vOkZL767dwLAK3rl"
      },
      {
        "external_urls": {
          "spotify": "https://open.spotify.com/artist/0lePxQbnM9zDwIFFEm0Plp"
        },
        "followers": {
          "href": null,
          "total": 23
        },
        "genres": [],
        "href": "https://api.spotify.com/v1/artists/0lePxQbnM9zDwIFFEm0Plp",
        "id": "0lePxQbnM9zDwIFFEm0Plp",
        "images": [
          {
            "url": "https://i.scdn.co/image/ab67616d0000b273eba40a8bde333144fbc5775e",
            "height": 640,
            "width": 640
          },
          {
            "url": "https://i.scdn.co/image/ab67616d00001e02eba40a8bde333144fbc5775e",
            "height": 300,
            "width": 300
          },
          {
            "url": "https://i.scdn.co/image/ab67616d00004851eba40a8bde333144fbc5775e",
            "height": 64,
            "width": 64
          }
        ],
        "name": "Karaoké Chanson Française",
        "popularity": 0,
        "type": "artist",
        "uri": "spotify:artist:0lePxQbnM9zDwIFFEm0Plp"
      }
    ]
  }
}
